15 Wrangling – COMP/STAT112 Notebook
…
# What does this do?
 elections_small |> 
   summarize(median_repub = median(repub_pct_20), total_votes = sum(total_votes_20))

  median_repub total_votes
1        68.29   157949293

Exercise 8: summarize + group_by demo

Finally, group_by() groups the units of observation or rows of a data frame by a specified set of variables. Alone, this function doesn’t change the appearance of our dataset or seem to do anything at all:

 elections_small |> 
   group_by(state_name)

# A tibble: 3,109 × 7
# Groups:   state_name [50]
   state_name county_name  total_votes_20 repub_pct_20 dem_pct_20 total_votes_16
   <chr>      <chr>                 <int>        <dbl>      <dbl>          <int>
 1 Alabama    Autauga Cou…          27770         71.4      27.0           24661
 2 Alabama    Baldwin Cou…         109679         76.2      22.4           94090
 3 Alabama    Barbour Cou…          10518         53.4      45.8           10390
 4 Alabama    Bibb County            9595         78.4      20.7            8748
 5 Alabama    Blount Coun…          27588         89.6       9.57          25384
 6 Alabama    Bullock Cou…           4613         24.8      74.7            4701
 7 Alabama    Butler Coun…           9488         57.5      41.8            8685
 8 Alabama    Calhoun Cou…          50983         68.8      29.8           47376
 9 Alabama    Chambers Co…          15284         57.3      41.6           13778
10 Alabama    Cherokee Co…          12301         86.0      13.2           10503
# ℹ 3,099 more rows
# ℹ 1 more variable: dem_pct_16 <dbl>
…
[1] "grouped_df" "tbl_df"     "tbl"        "data.frame"

Where it really shines is in partnership with summarize().

# What does this do?
# (What if we didn't use group_by?)
# It summarizes the median of republican percent in 2020 but shows all the values per state. Without the group_by it groups everything together and there is not a separation of states. 
 elections_small |> 
    group_by(state_name) |>
   summarize(median_repub = median(repub_pct_20), total_votes = sum(total_votes_20)) 

# A tibble: 50 × 3
   state_name           median_repub total_votes
   <chr>                       <dbl>       <int>
 1 Alabama                      70.6     2323304
 2 Arizona                      57.9     3387326
 3 Arkansas                     72.1     1219069
 4 California                   44.8    17495906
 5 Colorado                     56.2     3256953
 6 Connecticut                  41.0     1824280
 7 Delaware                     47.1      504010
 8 District of Columbia          5.4      344356
 9 Florida                      64.6    11067456
10 Georgia                      68       4997716
# ℹ 40 more rows
…
Before writing any code, translate the given prompts: how many distinct wrangling steps are needed and what verb do we need in each step?

Add each verb one at a time.

Part a

NOTE: Part a is a challenge exercise. If you get really stuck, move on to Part b which is the same overall question, but with hints.

# Sort the *states* from the most to least total votes cast in 2020
elections_small |>
  group_by(state_name) |>
  summarise(total_votes=sum(total_votes_20)) |>
  arrange(desc(total_votes))

# A tibble: 50 × 2
   state_name     total_votes
   <chr>                <int>
 1 California        17495906
 2 Texas             11317911
 3 Florida           11067456
 4 New York           8616205
 5 Pennsylvania       6925255
 6 Illinois           6038850
 7 Ohio               5922202
 8 Michigan           5539302
 9 North Carolina     5524801
10 Georgia            4997716
# ℹ 40 more rows

# In 2020, what were the total number of votes for the Democratic candidate and the total number of votes for the Republican candidate in each *state*?
elections_small |>
  mutate(total_votes_rep= (repub_pct_20/100)*total_votes_20) |>
  mutate(total_votes_dem= (dem_pct_20/100)*total_votes_20) |>
  group_by(state_name) |>
  summarise(total_votes_dem=sum(total_votes_dem, na.rm = TRUE),   total_votes_rep=sum(total_votes_rep, na.rm = TRUE))

# A tibble: 50 × 3
   state_name           total_votes_dem total_votes_rep
   <chr>                          <dbl>           <dbl>
 1 Alabama                      849665.        1441153.
 2 Arizona                     1672126.        1661672.
 3 Arkansas                     423919.         760639.
 4 California                 11109643.        6006034.
 5 Colorado                    1804395.        1364625.
 6 Connecticut                 1080677.         715315.
 7 Delaware                     296274.         200601.
 8 District of Columbia         317324.          18595.
 9 Florida                     5297129.        5668599.
10 Georgia                     2473656.        2461871.
# ℹ 40 more rows

# What states did the Democratic candidate win in 2020?
elections_small |>
  group_by(state_name) |>
  summarise(dem_win_20 = sum(dem_pct_20>repub_pct_20)>0) |>
  filter(dem_win_20) |>
  select(state_name)

# A tibble: 48 × 1
   state_name          
   <chr>               
 1 Alabama             
 2 Arizona             
 3 Arkansas            
 4 California          
 5 Colorado            
 6 Connecticut         
 7 Delaware            
 8 District of Columbia
 9 Florida             
10 Georgia             
# ℹ 38 more rows

Part b

# Sort the states from the most to least total votes cast in 2020
# HINT: Calculate the total number of votes in each state, then sort

elections_small |>
  group_by(state_name) |>
  summarise(total_votes = sum(total_votes_20, na.rm = TRUE)) |>
  arrange(desc(total_votes))

# A tibble: 50 × 2
   state_name     total_votes
   <chr>                <int>
 1 California        17495906
 2 Texas             11317911
 3 Florida           11067456
 4 New York           8616205
 5 Pennsylvania       6925255
 6 Illinois           6038850
 7 Ohio               5922202
 8 Michigan           5539302
 9 North Carolina     5524801
10 Georgia            4997716
# ℹ 40 more rows
# In 2020, what were the total number of votes for the Democratic candidate and the total number of votes for the Republican candidate in each state?
# HINT: First calculate the number of Dem and Repub votes in each *county*
# Then group and summarize these by state

elections_small |>
  mutate(
    total_votes_rep = (repub_pct_20 / 100) * total_votes_20,
    total_votes_dem = (dem_pct_20 / 100) * total_votes_20
  ) |>
  group_by(state_name) |>
  summarise(
    total_votes_dem = sum(total_votes_dem, na.rm = TRUE),
    total_votes_rep = sum(total_votes_rep, na.rm = TRUE))

# A tibble: 50 × 3
   state_name           total_votes_dem total_votes_rep
   <chr>                          <dbl>           <dbl>
 1 Alabama                      849665.        1441153.
 2 Arizona                     1672126.        1661672.
 3 Arkansas                     423919.         760639.
 4 California                 11109643.        6006034.
 5 Colorado                    1804395.        1364625.
 6 Connecticut                 1080677.         715315.
 7 Delaware                     296274.         200601.
 8 District of Columbia         317324.          18595.
 9 Florida                     5297129.        5668599.
10 Georgia                     2473656.        2461871.
# ℹ 40 more rows
…
# HINT: Start with the results from the previous chunk, and then keep only some rows
elections_small |>
  mutate(
    total_votes_rep = (repub_pct_20 / 100) * total_votes_20,
    total_votes_dem = (dem_pct_20 / 100) * total_votes_20
  ) |>
  group_by(state_name) |>
  summarise(
    total_votes_dem = sum(total_votes_dem, na.rm = TRUE),
    total_votes_rep = sum(total_votes_rep, na.rm = TRUE)
  ) |>
  filter(total_votes_dem > total_votes_rep) |>
  select(state_name)

# A tibble: 26 × 1
   state_name          
   <chr>               
 1 Arizona             
 2 California          
 3 Colorado            
 4 Connecticut         
 5 Delaware            
 6 District of Columbia
 7 Georgia             
 8 Hawaii              
 9 Illinois            
10 Maine               
# ℹ 16 more rows
…
