18 Joining – COMP/STAT112 Notebook
…
grades |> 
  anti_join(cross_listed) |> 
  inner_join(courses) |> 
  left_join(gpa_conversion) |> 
  group_by(dept) |> 
  summarize(gpa = mean(gp, na.rm = TRUE)) |> 
  arrange(gpa)

Joining with `by = join_by(sessionID)`
Joining with `by = join_by(sessionID)`
Joining with `by = join_by(grade)`

# A tibble: 39 × 2
   dept    gpa
   <chr> <dbl>
 1 o      3.08
 2 M      3.10
 3 K      3.17
 4 G      3.18
 5 B      3.2 
 6 J      3.22
 7 T      3.23
 8 b      3.25
 9 F      3.30
10 d      3.31
# ℹ 29 more rows
…
